/home/ricardo/Gitlab/lambda-cliente/src/main/java/com/ricardorm13/LambdaClientes.java
/home/ricardo/Gitlab/lambda-cliente/src/main/java/com/ricardorm13/ClienteService.java
/home/ricardo/Gitlab/lambda-cliente/src/main/java/com/ricardorm13/Cliente.java
/home/ricardo/Gitlab/lambda-cliente/src/main/java/com/ricardorm13/ApiGatewayResponse.java
/home/ricardo/Gitlab/lambda-cliente/src/main/java/com/ricardorm13/RequestEvent.java
